dvsd_cmp/run/results/magic/gls.vcd
$date
	Sun Aug 22 01:11:09 2021
$end
$version
	Icarus Verilog
$end
$timescale
	1ps
$end
$scope module tb_dvsd_cmp $end
$var wire 1 ! less_than $end
$var wire 1 " greater_than $end
$var wire 1 # equal_to $end
$var reg 4 $ A_in [3:0] $end
$var reg 4 % B_in [3:0] $end
$scope module uut $end
$var wire 4 & A_in [3:0] $end
$var wire 4 ' B_in [3:0] $end
$var wire 1 ! less_than $end
$var wire 1 " greater_than $end
$var wire 1 # equal_to $end
$var wire 1 ( _11_ $end
$var wire 1 ) _10_ $end
$var wire 1 * _09_ $end
$var wire 1 + _08_ $end
$var wire 1 , _07_ $end
$var wire 1 - _06_ $end
$var wire 1 . _05_ $end
$var wire 1 / _04_ $end
$var wire 1 0 _03_ $end
$var wire 1 1 _02_ $end
$var wire 1 2 _01_ $end
$var wire 1 3 _00_ $end
$scope module _12_ $end
$var wire 1 4 A $end
$var wire 1 5 VGND $end
$var wire 1 6 VNB $end
$var wire 1 7 VPB $end
$var wire 1 8 VPWR $end
$var wire 1 3 Y $end
$scope module base $end
$var wire 1 4 A $end
$var wire 1 9 VGND $end
$var wire 1 : VNB $end
$var wire 1 ; VPB $end
$var wire 1 < VPWR $end
$var wire 1 3 Y $end
$var wire 1 = not0_out_Y $end
$upscope $end
$upscope $end
$scope module _13_ $end
$var wire 1 > A $end
$var wire 1 ? VGND $end
$var wire 1 @ VNB $end
$var wire 1 A VPB $end
$var wire 1 B VPWR $end
$var wire 1 2 Y $end
$scope module base $end
$var wire 1 > A $end
$var wire 1 C VGND $end
$var wire 1 D VNB $end
$var wire 1 E VPB $end
$var wire 1 F VPWR $end
$var wire 1 2 Y $end
$var wire 1 G not0_out_Y $end
$upscope $end
$upscope $end
$scope module _14_ $end
$var wire 1 H A $end
$var wire 1 3 B $end
$var wire 1 I VGND $end
$var wire 1 J VNB $end
$var wire 1 K VPB $end
$var wire 1 L VPWR $end
$var wire 1 1 Y $end
$scope module base $end
$var wire 1 H A $end
$var wire 1 3 B $end
$var wire 1 M VGND $end
$var wire 1 N VNB $end
$var wire 1 O VPB $end
$var wire 1 P VPWR $end
$var wire 1 1 Y $end
$var wire 1 Q nand0_out_Y $end
$upscope $end
$upscope $end
$scope module _15_ $end
$var wire 1 R A1 $end
$var wire 1 3 A2 $end
$var wire 1 S B1 $end
$var wire 1 2 B2 $end
$var wire 1 1 C1 $end
$var wire 1 T VGND $end
$var wire 1 U VNB $end
$var wire 1 V VPB $end
$var wire 1 W VPWR $end
$var wire 1 0 X $end
$scope module base $end
$var wire 1 R A1 $end
$var wire 1 3 A2 $end
$var wire 1 S B1 $end
$var wire 1 2 B2 $end
$var wire 1 1 C1 $end
$var wire 1 X VGND $end
$var wire 1 Y VNB $end
$var wire 1 Z VPB $end
$var wire 1 [ VPWR $end
$var wire 1 0 X $end
$var wire 1 \ and0_out_X $end
$var wire 1 ] or0_out $end
$var wire 1 ^ or1_out $end
$upscope $end
$upscope $end
$scope module _16_ $end
$var wire 1 _ A1 $end
$var wire 1 3 A2 $end
$var wire 1 0 B1_N $end
$var wire 1 ` VGND $end
$var wire 1 a VNB $end
$var wire 1 b VPB $end
$var wire 1 c VPWR $end
$var wire 1 / X $end
$scope module base $end
$var wire 1 _ A1 $end
$var wire 1 3 A2 $end
$var wire 1 0 B1_N $end
$var wire 1 d VGND $end
$var wire 1 e VNB $end
$var wire 1 f VPB $end
$var wire 1 g VPWR $end
$var wire 1 / X $end
$var wire 1 h nor0_out $end
$var wire 1 i nor1_out_X $end
$upscope $end
$upscope $end
$scope module _17_ $end
$var wire 1 j A $end
$var wire 1 k VGND $end
$var wire 1 l VNB $end
$var wire 1 m VPB $end
$var wire 1 n VPWR $end
$var wire 1 . Y $end
$scope module base $end
$var wire 1 j A $end
$var wire 1 o VGND $end
$var wire 1 p VNB $end
$var wire 1 q VPB $end
$var wire 1 r VPWR $end
$var wire 1 . Y $end
$var wire 1 s not0_out_Y $end
$upscope $end
$upscope $end
$scope module _18_ $end
$var wire 1 t A $end
$var wire 1 u VGND $end
$var wire 1 v VNB $end
$var wire 1 w VPB $end
$var wire 1 x VPWR $end
$var wire 1 - Y $end
$scope module base $end
$var wire 1 t A $end
$var wire 1 y VGND $end
$var wire 1 z VNB $end
$var wire 1 { VPB $end
$var wire 1 | VPWR $end
$var wire 1 - Y $end
$var wire 1 } not0_out_Y $end
$upscope $end
$upscope $end
$scope module _19_ $end
$var wire 1 ~ A1 $end
$var wire 1 . A2 $end
$var wire 1 - B1 $end
$var wire 1 !" B2 $end
$var wire 1 "" VGND $end
$var wire 1 #" VNB $end
$var wire 1 $" VPB $end
$var wire 1 %" VPWR $end
$var wire 1 , Y $end
$scope module base $end
$var wire 1 ~ A1 $end
$var wire 1 . A2 $end
$var wire 1 - B1 $end
$var wire 1 !" B2 $end
$var wire 1 &" VGND $end
$var wire 1 '" VNB $end
$var wire 1 (" VPB $end
$var wire 1 )" VPWR $end
$var wire 1 , Y $end
$var wire 1 *" and0_out_Y $end
$var wire 1 +" nand0_out $end
$var wire 1 ," nand1_out $end
$upscope $end
$upscope $end
$scope module _20_ $end
$var wire 1 -" A1 $end
$var wire 1 . A2 $end
$var wire 1 - B1 $end
$var wire 1 ." B2 $end
$var wire 1 , C1 $end
$var wire 1 /" VGND $end
$var wire 1 0" VNB $end
$var wire 1 1" VPB $end
$var wire 1 2" VPWR $end
$var wire 1 + X $end
$scope module base $end
$var wire 1 -" A1 $end
$var wire 1 . A2 $end
$var wire 1 - B1 $end
$var wire 1 ." B2 $end
$var wire 1 , C1 $end
$var wire 1 3" VGND $end
$var wire 1 4" VNB $end
$var wire 1 5" VPB $end
$var wire 1 6" VPWR $end
$var wire 1 + X $end
$var wire 1 7" and0_out_X $end
$var wire 1 8" or0_out $end
$var wire 1 9" or1_out $end
$upscope $end
$upscope $end
$scope module _21_ $end
$var wire 1 + A $end
$var wire 1 :" VGND $end
$var wire 1 ;" VNB $end
$var wire 1 <" VPB $end
$var wire 1 =" VPWR $end
$var wire 1 * Y $end
$scope module base $end
$var wire 1 + A $end
$var wire 1 >" VGND $end
$var wire 1 ?" VNB $end
$var wire 1 @" VPB $end
$var wire 1 A" VPWR $end
$var wire 1 * Y $end
$var wire 1 B" not0_out_Y $end
$upscope $end
$upscope $end
$scope module _22_ $end
$var wire 1 C" A $end
$var wire 1 . B $end
$var wire 1 D" VGND $end
$var wire 1 E" VNB $end
$var wire 1 F" VPB $end
$var wire 1 G" VPWR $end
$var wire 1 ) Y $end
$scope module base $end
$var wire 1 C" A $end
$var wire 1 . B $end
$var wire 1 H" VGND $end
$var wire 1 I" VNB $end
$var wire 1 J" VPB $end
$var wire 1 K" VPWR $end
$var wire 1 ) Y $end
$var wire 1 L" nor0_out_Y $end
$upscope $end
$upscope $end
$scope module _23_ $end
$var wire 1 / A1 $end
$var wire 1 * A2 $end
$var wire 1 , B1 $end
$var wire 1 ) B2 $end
$var wire 1 M" VGND $end
$var wire 1 N" VNB $end
$var wire 1 O" VPB $end
$var wire 1 P" VPWR $end
$var wire 1 ! X $end
$scope module base $end
$var wire 1 / A1 $end
$var wire 1 * A2 $end
$var wire 1 , B1 $end
$var wire 1 ) B2 $end
$var wire 1 Q" VGND $end
$var wire 1 R" VNB $end
$var wire 1 S" VPB $end
$var wire 1 T" VPWR $end
$var wire 1 ! X $end
$var wire 1 U" and0_out_X $end
$var wire 1 V" or0_out $end
$var wire 1 W" or1_out $end
$upscope $end
$upscope $end
$scope module _24_ $end
$var wire 1 X" A $end
$var wire 1 Y" VGND $end
$var wire 1 Z" VNB $end
$var wire 1 [" VPB $end
$var wire 1 \" VPWR $end
$var wire 1 ( Y $end
$scope module base $end
$var wire 1 X" A $end
$var wire 1 ]" VGND $end
$var wire 1 ^" VNB $end
$var wire 1 _" VPB $end
$var wire 1 `" VPWR $end
$var wire 1 ( Y $end
$var wire 1 a" not0_out_Y $end
$upscope $end
$upscope $end
$scope module _25_ $end
$var wire 1 ( A1 $end
$var wire 1 b" A2 $end
$var wire 1 0 B1 $end
$var wire 1 + C1 $end
$var wire 1 c" VGND $end
$var wire 1 d" VNB $end
$var wire 1 e" VPB $end
$var wire 1 f" VPWR $end
$var wire 1 # X $end
$scope module base $end
$var wire 1 ( A1 $end
$var wire 1 b" A2 $end
$var wire 1 0 B1 $end
$var wire 1 + C1 $end
$var wire 1 g" VGND $end
$var wire 1 h" VNB $end
$var wire 1 i" VPB $end
$var wire 1 j" VPWR $end
$var wire 1 # X $end
$var wire 1 k" and0_out_X $end
$var wire 1 l" or0_out $end
$upscope $end
$upscope $end
$scope module _26_ $end
$var wire 1 ! A $end
$var wire 1 # B $end
$var wire 1 m" VGND $end
$var wire 1 n" VNB $end
$var wire 1 o" VPB $end
$var wire 1 p" VPWR $end
$var wire 1 " Y $end
$scope module base $end
$var wire 1 ! A $end
$var wire 1 # B $end
$var wire 1 q" VGND $end
$var wire 1 r" VNB $end
$var wire 1 s" VPB $end
$var wire 1 t" VPWR $end
$var wire 1 " Y $end
$var wire 1 u" nor0_out_Y $end
$upscope $end
$upscope $end
$upscope $end
$upscope $end
$enddefinitions $end
#0
$dumpvars
0u"
1t"
1s"
0r"
0q"
1p"
1o"
0n"
0m"
1l"
0k"
1j"
1i"
0h"
0g"
1f"
1e"
0d"
0c"
1b"
1a"
1`"
1_"
0^"
0]"
1\"
1["
0Z"
0Y"
0X"
1W"
1V"
1U"
1T"
1S"
0R"
0Q"
1P"
1O"
0N"
0M"
0L"
1K"
1J"
0I"
0H"
1G"
1F"
0E"
0D"
1C"
0B"
1A"
1@"
0?"
0>"
1="
1<"
0;"
0:"
19"
18"
17"
16"
15"
04"
03"
12"
11"
00"
0/"
0."
1-"
1,"
1+"
1*"
1)"
1("
0'"
0&"
1%"
1$"
0#"
0""
0!"
1~
1}
1|
1{
0z
0y
1x
1w
0v
0u
0t
0s
1r
1q
0p
0o
1n
1m
0l
0k
1j
1i
0h
1g
1f
0e
0d
1c
1b
0a
0`
0_
1^
0]
0\
1[
1Z
0Y
0X
1W
1V
0U
0T
0S
0R
1Q
1P
1O
0N
0M
1L
1K
0J
0I
0H
0G
1F
1E
0D
0C
1B
1A
0@
0?
1>
1=
1<
1;
0:
09
18
17
06
05
04
13
02
11
00
1/
0.
1-
1,
1+
0*
0)
1(
b1001 '
b1000 &
b1001 %
b1000 $
0#
0"
1!
$end
#100000
1"
1u"
0!
0/
0U"
1*
0i
0W"
1B"
10
0,
0+
1\
0*"
07"
1]
0+"
08"
12
11
1.
0-
03
1G
1Q
1s
0}
0=
0>
1H
1R
1_
0j
1t
0b"
14
b110 %
b110 '
b1010 $
b1010 &
#200000
0V"
0"
0*
1#
0u"
0B"
1k"
0!
1+
0U"
17"
1W"
18"
1,
1-
1*"
1}
1+"
0t
0~
0-"
0C"
b10 %
b10 '
b10 $
b10 &
#300000
0!
0U"
0V"
0*
1"
0B"
1u"
1+
0#
17"
1W"
0k"
1,
0l"
0.
0-
1*"
0(
0s
0}
1+"
1,"
0a"
1j
1t
1S
1~
1!"
1-"
1."
1C"
1X"
b1110 %
b1110 '
b1111 $
b1111 &
#400000
1!
1U"
1V"
0"
1*
0u"
1B"
0#
0+
02
1.
0k"
07"
0)
0G
1s
1l"
19"
08"
0L"
1>
0j
1b"
0~
0!"
0-"
0."
0C"
b111 %
b111 '
b11 $
b11 &
#500000
0"
0u"
1!
1U"
1W"
00
1,
0\
0.
1*"
0^
1h
0s
1+"
0H
0R
0_
1j
1~
1-"
1C"
b1101 %
b1101 '
b1011 $
b1011 &
#600000
0!
0U"
0V"
0*
1#
0B"
1k"
1+
17"
10
0/
1\
0i
1.
0)
1^
0h
1s
19"
18"
0L"
1H
1R
1_
0j
0~
1!"
0-"
1."
0C"
b111 %
b111 '
b111 $
b111 &
#700000
1!
1U"
1V"
0"
0/
1*
1)
0u"
0i
1B"
10
09"
1L"
0#
0+
12
1\
0.
0k"
13
07"
1G
1^
0h
0s
0l"
1=
08"
0>
0H
0R
0_
1j
0b"
04
0!"
0."
b1100 %
b1100 '
b1 $
b1 &
#800000
1"
1u"
0!
0U"
0V"
0*
0B"
1+
17"
0)
19"
0L"
1.
1s
18"
0j
1!"
1."
b100 %
b100 '
b101 $
b101 &
#900000
1V"
1*
1B"
1"
00
0+
1u"
0\
07"
0W"
0]
0,"
0#
0^
1h
0,
02
0.
1-
0k"
03
0*"
1(
0G
0s
1}
1l"
0=
1+"
1a"
1>
1j
0t
1b"
14
0S
1~
1-"
1C"
0X"
b1001 %
b1001 '
b1110 $
b1110 &
#1000000
0V"
0*
1#
0"
0B"
1k"
0u"
10
0/
1+
0!
1\
0i
17"
0U"
1]
1^
0h
1,
1W"
12
1.
13
1*"
0)
1G
1s
1=
1,"
19"
0L"
0>
0j
0b"
04
0~
0!"
0-"
0."
0C"
b0 %
b0 '
b0 $
b0 &
#1100000
1"
1V"
1u"
1*
1/
0#
1B"
1i
0k"
0+
00
07"
0W"
0]
0\
0,
02
01
0.
0*"
0G
0Q
0s
1+"
0,"
1>
1H
1R
1_
1j
1b"
1~
1!"
1-"
1."
1C"
b1011 %
b1011 '
b1100 $
b1100 &
#1200000
0"
0*
0u"
0B"
1!
1+
1U"
17"
1W"
1,
11
1*"
1Q
1,"
0H
0R
0_
0!"
0."
b1001 %
b1001 '
b1000 $
b1000 &
#1300000
1"
1u"
0!
0/
0U"
1*
0i
0W"
1B"
10
0,
0+
1\
0*"
07"
1]
0+"
08"
12
11
1.
0-
03
1G
1Q
1s
0}
0=
0>
1H
1R
1_
0j
1t
0b"
14
b110 %
b110 '
b1010 $
b1010 &
#1400000
0V"
0"
0*
1#
0u"
0B"
1k"
0!
1+
0U"
17"
1W"
18"
1,
1-
1*"
1}
1+"
0t
0~
0-"
0C"
b10 %
b10 '
b10 $
b10 &
#1500000
0!
0U"
0V"
0*
1"
0B"
1u"
1+
0#
17"
1W"
0k"
1,
0l"
0.
0-
1*"
0(
0s
0}
1+"
1,"
0a"
1j
1t
1S
1~
1!"
1-"
1."
1C"
1X"
b1110 %
b1110 '
b1111 $
b1111 &
#1600000
1!
1U"
1V"
0"
1*
0u"
1B"
0#
0+
02
1.
0k"
07"
0)
0G
1s
1l"
19"
08"
0L"
1>
0j
1b"
0~
0!"
0-"
0."
0C"
b111 %
b111 '
b11 $
b11 &
#1700000
0"
0u"
1!
1U"
1W"
00
1,
0\
0.
1*"
0^
1h
0s
1+"
0H
0R
0_
1j
1~
1-"
1C"
b1101 %
b1101 '
b1011 $
b1011 &
#1800000
0!
0U"
0V"
0*
1#
0B"
1k"
1+
17"
10
0/
1\
0i
1.
0)
1^
0h
1s
19"
18"
0L"
1H
1R
1_
0j
0~
1!"
0-"
1."
0C"
b111 %
b111 '
b111 $
b111 &
#1900000
1!
1U"
1V"
0"
0/
1*
1)
0u"
0i
1B"
10
09"
1L"
0#
0+
12
1\
0.
0k"
13
07"
1G
1^
0h
0s
0l"
1=
08"
0>
0H
0R
0_
1j
0b"
04
0!"
0."
b1100 %
b1100 '
b1 $
b1 &
#2000000
1"
1u"
0!
0U"
0V"
0*
0B"
1+
17"
0)
19"
0L"
1.
1s
18"
0j
1!"
1."
b100 %
b100 '
b101 $
b101 &
#2100000
1V"
1*
1B"
1"
00
0+
1u"
0\
07"
0W"
0]
0,"
0#
0^
1h
0,
02
0.
1-
0k"
03
0*"
1(
0G
0s
1}
1l"
0=
1+"
1a"
1>
1j
0t
1b"
14
0S
1~
1-"
1C"
0X"
b1001 %
b1001 '
b1110 $
b1110 &
#2200000
0V"
0*
1#
0"
0B"
1k"
0u"
10
0/
1+
0!
1\
0i
17"
0U"
1]
1^
0h
1,
1W"
12
1.
13
1*"
0)
1G
1s
1=
1,"
19"
0L"
0>
0j
0b"
04
0~
0!"
0-"
0."
0C"
b0 %
b0 '
b0 $
b0 &
#2300000
1"
1V"
1u"
1*
1/
0#
1B"
1i
0k"
0+
00
07"
0W"
0]
0\
0,
02
01
0.
0*"
0G
0Q
0s
1+"
0,"
1>
1H
1R
1_
1j
1b"
1~
1!"
1-"
1."
1C"
b1011 %
b1011 '
b1100 $
b1100 &
#2400000
0"
0*
0u"
0B"
1!
1+
1U"
17"
1W"
1,
11
1*"
1Q
1,"
0H
0R
0_
0!"
0."
b1001 %
b1001 '
b1000 $
b1000 &
#2500000
1"
1u"
0!
0/
0U"
1*
0i
0W"
1B"
10
0,
0+
1\
0*"
07"
1]
0+"
08"
12
11
1.
0-
03
1G
1Q
1s
0}
0=
0>
1H
1R
1_
0j
1t
0b"
14
b110 %
b110 '
b1010 $
b1010 &
#2600000
0V"
0"
0*
1#
0u"
0B"
1k"
0!
1+
0U"
17"
1W"
18"
1,
1-
1*"
1}
1+"
0t
0~
0-"
0C"
b10 %
b10 '
b10 $
b10 &
#2700000
0!
0U"
0V"
0*
1"
0B"
1u"
1+
0#
17"
1W"
0k"
1,
0l"
0.
0-
1*"
0(
0s
0}
1+"
1,"
0a"
1j
1t
1S
1~
1!"
1-"
1."
1C"
1X"
b1110 %
b1110 '
b1111 $
b1111 &
#2800000
1!
1U"
1V"
0"
1*
0u"
1B"
0#
0+
02
1.
0k"
07"
0)
0G
1s
1l"
19"
08"
0L"
1>
0j
1b"
0~
0!"
0-"
0."
0C"
b111 %
b111 '
b11 $
b11 &
#2900000
0"
0u"
1!
1U"
1W"
00
1,
0\
0.
1*"
0^
1h
0s
1+"
0H
0R
0_
1j
1~
1-"
1C"
b1101 %
b1101 '
b1011 $
b1011 &
#3000000
0!
0U"
0V"
0*
1#
0B"
1k"
1+
17"
10
0/
1\
0i
1.
0)
1^
0h
1s
19"
18"
0L"
1H
1R
1_
0j
0~
1!"
0-"
1."
0C"
b111 %
b111 '
b111 $
b111 &
#3100000
1!
1U"
1V"
0"
0/
1*
1)
0u"
0i
1B"
10
09"
1L"
0#
0+
12
1\
0.
0k"
13
07"
1G
1^
0h
0s
0l"
1=
08"
0>
0H
0R
0_
1j
0b"
04
0!"
0."
b1100 %
b1100 '
b1 $
b1 &
#3200000
1"
1u"
0!
0U"
0V"
0*
0B"
1+
17"
0)
19"
0L"
1.
1s
18"
0j
1!"
1."
b100 %
b100 '
b101 $
b101 &
#3300000
1V"
1*
1B"
1"
00
0+
1u"
0\
07"
0W"
0]
0,"
0#
0^
1h
0,
02
0.
1-
0k"
03
0*"
1(
0G
0s
1}
1l"
0=
1+"
1a"
1>
1j
0t
1b"
14
0S
1~
1-"
1C"
0X"
b1001 %
b1001 '
b1110 $
b1110 &
#3400000
0V"
0*
1#
0"
0B"
1k"
0u"
10
0/
1+
0!
1\
0i
17"
0U"
1]
1^
0h
1,
1W"
12
1.
13
1*"
0)
1G
1s
1=
1,"
19"
0L"
0>
0j
0b"
04
0~
0!"
0-"
0."
0C"
b0 %
b0 '
b0 $
b0 &
#3500000
1"
1V"
1u"
1*
1/
0#
1B"
1i
0k"
0+
00
07"
0W"
0]
0\
0,
02
01
0.
0*"
0G
0Q
0s
1+"
0,"
1>
1H
1R
1_
1j
1b"
1~
1!"
1-"
1."
1C"
b1011 %
b1011 '
b1100 $
b1100 &
#3600000
0"
0*
0u"
0B"
1!
1+
1U"
17"
1W"
1,
11
1*"
1Q
1,"
0H
0R
0_
0!"
0."
b1001 %
b1001 '
b1000 $
b1000 &
#3700000
1"
1u"
0!
0/
0U"
1*
0i
0W"
1B"
10
0,
0+
1\
0*"
07"
1]
0+"
08"
12
11
1.
0-
03
1G
1Q
1s
0}
0=
0>
1H
1R
1_
0j
1t
0b"
14
b110 %
b110 '
b1010 $
b1010 &
#3800000
0V"
0"
0*
1#
0u"
0B"
1k"
0!
1+
0U"
17"
1W"
18"
1,
1-
1*"
1}
1+"
0t
0~
0-"
0C"
b10 %
b10 '
b10 $
b10 &
#3900000
0!
0U"
0V"
0*
1"
0B"
1u"
1+
0#
17"
1W"
0k"
1,
0l"
0.
0-
1*"
0(
0s
0}
1+"
1,"
0a"
1j
1t
1S
1~
1!"
1-"
1."
1C"
1X"
b1110 %
b1110 '
b1111 $
b1111 &
#4000000
1!
1U"
1V"
0"
1*
0u"
1B"
0#
0+
02
1.
0k"
07"
0)
0G
1s
1l"
19"
08"
0L"
1>
0j
1b"
0~
0!"
0-"
0."
0C"
b111 %
b111 '
b11 $
b11 &
#4100000
0"
0u"
1!
1U"
1W"
00
1,
0\
0.
1*"
0^
1h
0s
1+"
0H
0R
0_
1j
1~
1-"
1C"
b1101 %
b1101 '
b1011 $
b1011 &
#4200000
0!
0U"
0V"
0*
1#
0B"
1k"
1+
17"
10
0/
1\
0i
1.
0)
1^
0h
1s
19"
18"
0L"
1H
1R
1_
0j
0~
1!"
0-"
1."
0C"
b111 %
b111 '
b111 $
b111 &
#4300000
1!
1U"
1V"
0"
0/
1*
1)
0u"
0i
1B"
10
09"
1L"
0#
0+
12
1\
0.
0k"
13
07"
1G
1^
0h
0s
0l"
1=
08"
0>
0H
0R
0_
1j
0b"
04
0!"
0."
b1100 %
b1100 '
b1 $
b1 &
#4400000
1"
1u"
0!
0U"
0V"
0*
0B"
1+
17"
0)
19"
0L"
1.
1s
18"
0j
1!"
1."
b100 %
b100 '
b101 $
b101 &
#4500000
1V"
1*
1B"
1"
00
0+
1u"
0\
07"
0W"
0]
0,"
0#
0^
1h
0,
02
0.
1-
0k"
03
0*"
1(
0G
0s
1}
1l"
0=
1+"
1a"
1>
1j
0t
1b"
14
0S
1~
1-"
1C"
0X"
b1001 %
b1001 '
b1110 $
b1110 &
#4600000
0V"
0*
1#
0"
0B"
1k"
0u"
10
0/
1+
0!
1\
0i
17"
0U"
1]
1^
0h
1,
1W"
12
1.
13
1*"
0)
1G
1s
1=
1,"
19"
0L"
0>
0j
0b"
04
0~
0!"
0-"
0."
0C"
b0 %
b0 '
b0 $
b0 &
#4700000
1"
1V"
1u"
1*
1/
0#
1B"
1i
0k"
0+
00
07"
0W"
0]
0\
0,
02
01
0.
0*"
0G
0Q
0s
1+"
0,"
1>
1H
1R
1_
1j
1b"
1~
1!"
1-"
1."
1C"
b1011 %
b1011 '
b1100 $
b1100 &
#4800000
0"
0*
0u"
0B"
1!
1+
1U"
17"
1W"
1,
11
1*"
1Q
1,"
0H
0R
0_
0!"
0."
b1001 %
b1001 '
b1000 $
b1000 &
#4900000
1"
1u"
0!
0/
0U"
1*
0i
0W"
1B"
10
0,
0+
1\
0*"
07"
1]
0+"
08"
12
11
1.
0-
03
1G
1Q
1s
0}
0=
0>
1H
1R
1_
0j
1t
0b"
14
b110 %
b110 '
b1010 $
b1010 &
#5000000
0V"
0"
0*
1#
0u"
0B"
1k"
0!
1+
0U"
17"
1W"
18"
1,
1-
1*"
1}
1+"
0t
0~
0-"
0C"
b10 %
b10 '
b10 $
b10 &
#5100000
0!
0U"
0V"
0*
1"
0B"
1u"
1+
0#
17"
1W"
0k"
1,
0l"
0.
0-
1*"
0(
0s
0}
1+"
1,"
0a"
1j
1t
1S
1~
1!"
1-"
1."
1C"
1X"
b1110 %
b1110 '
b1111 $
b1111 &
#5200000
1!
1U"
1V"
0"
1*
0u"
1B"
0#
0+
02
1.
0k"
07"
0)
0G
1s
1l"
19"
08"
0L"
1>
0j
1b"
0~
0!"
0-"
0."
0C"
b111 %
b111 '
b11 $
b11 &
#5300000
0"
0u"
1!
1U"
1W"
00
1,
0\
0.
1*"
0^
1h
0s
1+"
0H
0R
0_
1j
1~
1-"
1C"
b1101 %
b1101 '
b1011 $
b1011 &
#5400000
0!
0U"
0V"
0*
1#
0B"
1k"
1+
17"
10
0/
1\
0i
1.
0)
1^
0h
1s
19"
18"
0L"
1H
1R
1_
0j
0~
1!"
0-"
1."
0C"
b111 %
b111 '
b111 $
b111 &
#5500000
1!
1U"
1V"
0"
0/
1*
1)
0u"
0i
1B"
10
09"
1L"
0#
0+
12
1\
0.
0k"
13
07"
1G
1^
0h
0s
0l"
1=
08"
0>
0H
0R
0_
1j
0b"
04
0!"
0."
b1100 %
b1100 '
b1 $
b1 &
#5600000
1"
1u"
0!
0U"
0V"
0*
0B"
1+
17"
0)
19"
0L"
1.
1s
18"
0j
1!"
1."
b100 %
b100 '
b101 $
b101 &
#5700000
1V"
1*
1B"
1"
00
0+
1u"
0\
07"
0W"
0]
0,"
0#
0^
1h
0,
02
0.
1-
0k"
03
0*"
1(
0G
0s
1}
1l"
0=
1+"
1a"
1>
1j
0t
1b"
14
0S
1~
1-"
1C"
0X"
b1001 %
b1001 '
b1110 $
b1110 &
#5800000
0V"
0*
1#
0"
0B"
1k"
0u"
10
0/
1+
0!
1\
0i
17"
0U"
1]
1^
0h
1,
1W"
12
1.
13
1*"
0)
1G
1s
1=
1,"
19"
0L"
0>
0j
0b"
04
0~
0!"
0-"
0."
0C"
b0 %
b0 '
b0 $
b0 &
#5900000
1"
1V"
1u"
1*
1/
0#
1B"
1i
0k"
0+
00
07"
0W"
0]
0\
0,
02
01
0.
0*"
0G
0Q
0s
1+"
0,"
1>
1H
1R
1_
1j
1b"
1~
1!"
1-"
1."
1C"
b1011 %
b1011 '
b1100 $
b1100 &
#6000000
0"
0*
0u"
0B"
1!
1+
1U"
17"
1W"
1,
11
1*"
1Q
1,"
0H
0R
0_
0!"
0."
b1001 %
b1001 '
b1000 $
b1000 &
#6100000
1"
1u"
0!
0/
0U"
1*
0i
0W"
1B"
10
0,
0+
1\
0*"
07"
1]
0+"
08"
12
11
1.
0-
03
1G
1Q
1s
0}
0=
0>
1H
1R
1_
0j
1t
0b"
14
b110 %
b110 '
b1010 $
b1010 &
#6200000
0V"
0"
0*
1#
0u"
0B"
1k"
0!
1+
0U"
17"
1W"
18"
1,
1-
1*"
1}
1+"
0t
0~
0-"
0C"
b10 %
b10 '
b10 $
b10 &
#6300000
0!
0U"
0V"
0*
1"
0B"
1u"
1+
0#
17"
1W"
0k"
1,
0l"
0.
0-
1*"
0(
0s
0}
1+"
1,"
0a"
1j
1t
1S
1~
1!"
1-"
1."
1C"
1X"
b1110 %
b1110 '
b1111 $
b1111 &
#6400000
1!
1U"
1V"
0"
1*
0u"
1B"
0#
0+
02
1.
0k"
07"
0)
0G
1s
1l"
19"
08"
0L"
1>
0j
1b"
0~
0!"
0-"
0."
0C"
b111 %
b111 '
b11 $
b11 &
#6500000
0"
0u"
1!
1U"
1W"
00
1,
0\
0.
1*"
0^
1h
0s
1+"
0H
0R
0_
1j
1~
1-"
1C"
b1101 %
b1101 '
b1011 $
b1011 &
#6600000
0!
0U"
0V"
0*
1#
0B"
1k"
1+
17"
10
0/
1\
0i
1.
0)
1^
0h
1s
19"
18"
0L"
1H
1R
1_
0j
0~
1!"
0-"
1."
0C"
b111 %
b111 '
b111 $
b111 &
#6700000
1!
1U"
1V"
0"
0/
1*
1)
0u"
0i
1B"
10
09"
1L"
0#
0+
12
1\
0.
0k"
13
07"
1G
1^
0h
0s
0l"
1=
08"
0>
0H
0R
0_
1j
0b"
04
0!"
0."
b1100 %
b1100 '
b1 $
b1 &
#6800000
1"
1u"
0!
0U"
0V"
0*
0B"
1+
17"
0)
19"
0L"
1.
1s
18"
0j
1!"
1."
b100 %
b100 '
b101 $
b101 &
#6900000
1V"
1*
1B"
1"
00
0+
1u"
0\
07"
0W"
0]
0,"
0#
0^
1h
0,
02
0.
1-
0k"
03
0*"
1(
0G
0s
1}
1l"
0=
1+"
1a"
1>
1j
0t
1b"
14
0S
1~
1-"
1C"
0X"
b1001 %
b1001 '
b1110 $
b1110 &
#7000000
0V"
0*
1#
0"
0B"
1k"
0u"
10
0/
1+
0!
1\
0i
17"
0U"
1]
1^
0h
1,
1W"
12
1.
13
1*"
0)
1G
1s
1=
1,"
19"
0L"
0>
0j
0b"
04
0~
0!"
0-"
0."
0C"
b0 %
b0 '
b0 $
b0 &
#7100000
1"
1V"
1u"
1*
1/
0#
1B"
1i
0k"
0+
00
07"
0W"
0]
0\
0,
02
01
0.
0*"
0G
0Q
0s
1+"
0,"
1>
1H
1R
1_
1j
1b"
1~
1!"
1-"
1."
1C"
b1011 %
b1011 '
b1100 $
b1100 &
